統計学第6/7講
…
## Rows: 963 Columns: 44

## ── Column specification ────────────────────────────────────────────────────────
## Delimiter: ","
## chr (10): F_SEX, F_GEN_2, F_GEN, F_FGR, F_INK, F_INS, F_TAN, ARE, MAR, CHI
## dbl (34): SUB_HAP, SUB_SAT, SUB_SLP, DIC_PAR, DIC_FRI, DIC_OTH, ULT_PRO_PAR,...

## 
## ℹ Use `spec()` to retrieve the full column specification for this data.
## ℹ Specify the column types or set `show_col_types = FALSE` to quiet this message.

exdataset

## # A tibble: 963 × 44
##    SUB_HAP SUB_SAT SUB_SLP DIC_PAR DIC_FRI DIC_OTH ULT_PRO_PAR ULT_PRO_FRI
##      <dbl>   <dbl>   <dbl>   <dbl>   <dbl>   <dbl>       <dbl>       <dbl>
##  1       4       4       9      10       5       3          10           5
##  2       6       5       8       3       1       0           3           5
##  3       5       3       3      10       5       0          10           5
##  4       5       5       4       2       0       0           5           5
##  5       3       3       2       0       0       0           5           5
##  6       7       7       6       3       1       0           3           1
##  7       5       5       6       5       2       0           5           3
##  8       5       5       8       5       5       0           5           5
##  9       1       3       1      10       5       0          10           5
## 10       7       7       5       5       5       0           5           5
## # … with 953 more rows, and 36 more variables: ULT_PRO_OTH <dbl>,
## #   ULT_REC_PAR <dbl>, ULT_REC_FRI <dbl>, ULT_REC_OTH <dbl>, TRU_PAR <dbl>,
## #   TRU_FRI <dbl>, TRU_OTH <dbl>, SPN_UNM <dbl>, SPN_THK <dbl>, SPN_FEA <dbl>,
## #   SPN_LIV <dbl>, SPN_IMP <dbl>, KAN_SEC <dbl>, KAN_THI <dbl>, KAN_SUP <dbl>,
## #   KAN_PRD <dbl>, KAN_KYK <dbl>, DED_SHI <dbl>, DED_TEN <dbl>, DED_JIG <dbl>,
## #   DED_KIS <dbl>, DED_PUN <dbl>, F_SEX <chr>, F_GEN_2 <chr>, F_GEN <chr>,
## #   F_FGR <chr>, F_INK <chr>, F_INS <chr>, F_INK_cen <dbl>, F_INS_cen <dbl>, …
…
summarise：集約する

group_by：グループごとに算出する

今回は最新の関数表記を中心に説明し，適宜説明を追加する．

filter()：指定した条件に合うデータを抽出

男性のみを取り出す

exdataset %>%
  filter(F_SEX == "male")

## # A tibble: 405 × 44
##    SUB_HAP SUB_SAT SUB_SLP DIC_PAR DIC_FRI DIC_OTH ULT_PRO_PAR ULT_PRO_FRI
##      <dbl>   <dbl>   <dbl>   <dbl>   <dbl>   <dbl>       <dbl>       <dbl>
##  1       4       4       9      10       5       3          10           5
##  2       6       5       8       3       1       0           3           5
##  3       5       3       3      10       5       0          10           5
##  4       5       5       4       2       0       0           5           5
##  5       3       3       2       0       0       0           5           5
##  6       7       7       6       3       1       0           3           1
##  7       5       5       6       5       2       0           5           3
##  8       1       3       1      10       5       0          10           5
##  9       7       7       5       5       5       0           5           5
## 10       3       3       7      10       5       0          10           5
## # … with 395 more rows, and 36 more variables: ULT_PRO_OTH <dbl>,
## #   ULT_REC_PAR <dbl>, ULT_REC_FRI <dbl>, ULT_REC_OTH <dbl>, TRU_PAR <dbl>,
## #   TRU_FRI <dbl>, TRU_OTH <dbl>, SPN_UNM <dbl>, SPN_THK <dbl>, SPN_FEA <dbl>,
## #   SPN_LIV <dbl>, SPN_IMP <dbl>, KAN_SEC <dbl>, KAN_THI <dbl>, KAN_SUP <dbl>,
## #   KAN_PRD <dbl>, KAN_KYK <dbl>, DED_SHI <dbl>, DED_TEN <dbl>, DED_JIG <dbl>,
## #   DED_KIS <dbl>, DED_PUN <dbl>, F_SEX <chr>, F_GEN_2 <chr>, F_GEN <chr>,
## #   F_FGR <chr>, F_INK <chr>, F_INS <chr>, F_INK_cen <dbl>, F_INS_cen <dbl>, …

関東地方以外の人を取り出す

exdataset %>%
  filter(ARE != "Kanto")

## # A tibble: 587 × 44
##    SUB_HAP SUB_SAT SUB_SLP DIC_PAR DIC_FRI DIC_OTH ULT_PRO_PAR ULT_PRO_FRI
##      <dbl>   <dbl>   <dbl>   <dbl>   <dbl>   <dbl>       <dbl>       <dbl>
##  1       4       4       9      10       5       3          10           5
##  2       6       5       8       3       1       0           3           5
##  3       5       3       3      10       5       0          10           5
##  4       3       3       2       0       0       0           5           5
##  5       7       7       6       3       1       0           3           1
##  6       5       5       8       5       5       0           5           5
##  7       1       3       1      10       5       0          10           5
##  8       5       5       3       3       2       0           3           5
##  9       8       7       8       4       1       1           5           4
## 10       3       3       7      10       5       0          10           5
## # … with 577 more rows, and 36 more variables: ULT_PRO_OTH <dbl>,
## #   ULT_REC_PAR <dbl>, ULT_REC_FRI <dbl>, ULT_REC_OTH <dbl>, TRU_PAR <dbl>,
## #   TRU_FRI <dbl>, TRU_OTH <dbl>, SPN_UNM <dbl>, SPN_THK <dbl>, SPN_FEA <dbl>,
## #   SPN_LIV <dbl>, SPN_IMP <dbl>, KAN_SEC <dbl>, KAN_THI <dbl>, KAN_SUP <dbl>,
## #   KAN_PRD <dbl>, KAN_KYK <dbl>, DED_SHI <dbl>, DED_TEN <dbl>, DED_JIG <dbl>,
## #   DED_KIS <dbl>, DED_PUN <dbl>, F_SEX <chr>, F_GEN_2 <chr>, F_GEN <chr>,
## #   F_FGR <chr>, F_INK <chr>, F_INS <chr>, F_INK_cen <dbl>, F_INS_cen <dbl>, …

select()：列を抽出

主観的幸福度(SUB_HAP)と睡眠満足度(SUB_SLP)のみを抽出

exdataset %>%
  select(SUB_HAP, SUB_SLP)

## # A tibble: 963 × 2
##    SUB_HAP SUB_SLP
##      <dbl>   <dbl>
##  1       4       9
##  2       6       8
##  3       5       3
##  4       5       4
##  5       3       2
##  6       7       6
##  7       5       6
##  8       5       8
##  9       1       1
## 10       7       5
## # … with 953 more rows

主観的幸福度(SUB_HAP)と睡眠満足度(SUB_SLP)以外を抽出

exdataset %>%
  select(-SUB_HAP, -SUB_SLP)

## # A tibble: 963 × 42
##    SUB_SAT DIC_PAR DIC_FRI DIC_OTH ULT_PRO_PAR ULT_PRO_FRI ULT_PRO_OTH
##      <dbl>   <dbl>   <dbl>   <dbl>       <dbl>       <dbl>       <dbl>
##  1       4      10       5       3          10           5           5
##  2       5       3       1       0           3           5           7
##  3       3      10       5       0          10           5           0
##  4       5       2       0       0           5           5           5
##  5       3       0       0       0           5           5           0
##  6       7       3       1       0           3           1           0
##  7       5       5       2       0           5           3           2
##  8       5       5       5       0           5           5           0
##  9       3      10       5       0          10           5           0
## 10       7       5       5       0           5           5           5
## # … with 953 more rows, and 35 more variables: ULT_REC_PAR <dbl>,
## #   ULT_REC_FRI <dbl>, ULT_REC_OTH <dbl>, TRU_PAR <dbl>, TRU_FRI <dbl>,
## #   TRU_OTH <dbl>, SPN_UNM <dbl>, SPN_THK <dbl>, SPN_FEA <dbl>, SPN_LIV <dbl>,
## #   SPN_IMP <dbl>, KAN_SEC <dbl>, KAN_THI <dbl>, KAN_SUP <dbl>, KAN_PRD <dbl>,
## #   KAN_KYK <dbl>, DED_SHI <dbl>, DED_TEN <dbl>, DED_JIG <dbl>, DED_KIS <dbl>,
## #   DED_PUN <dbl>, F_SEX <chr>, F_GEN_2 <chr>, F_GEN <chr>, F_FGR <chr>,
## #   F_INK <chr>, F_INS <chr>, F_INK_cen <dbl>, F_INS_cen <dbl>, F_TAN <chr>, …

mutate()：列を追加

主観的幸福度(SUB_HAP)と生活満足度(SUB_SAT)を足してHAPSATという変数を作成する

exdataset %>%
  mutate(HAPSAT = SUB_HAP + SUB_SAT)

## # A tibble: 963 × 45
##    SUB_HAP SUB_SAT SUB_SLP DIC_PAR DIC_FRI DIC_OTH ULT_PRO_PAR ULT_PRO_FRI
##      <dbl>   <dbl>   <dbl>   <dbl>   <dbl>   <dbl>       <dbl>       <dbl>
##  1       4       4       9      10       5       3          10           5
##  2       6       5       8       3       1       0           3           5
##  3       5       3       3      10       5       0          10           5
##  4       5       5       4       2       0       0           5           5
##  5       3       3       2       0       0       0           5           5
##  6       7       7       6       3       1       0           3           1
##  7       5       5       6       5       2       0           5           3
##  8       5       5       8       5       5       0           5           5
##  9       1       3       1      10       5       0          10           5
## 10       7       7       5       5       5       0           5           5
## # … with 953 more rows, and 37 more variables: ULT_PRO_OTH <dbl>,
## #   ULT_REC_PAR <dbl>, ULT_REC_FRI <dbl>, ULT_REC_OTH <dbl>, TRU_PAR <dbl>,
## #   TRU_FRI <dbl>, TRU_OTH <dbl>, SPN_UNM <dbl>, SPN_THK <dbl>, SPN_FEA <dbl>,
## #   SPN_LIV <dbl>, SPN_IMP <dbl>, KAN_SEC <dbl>, KAN_THI <dbl>, KAN_SUP <dbl>,
## #   KAN_PRD <dbl>, KAN_KYK <dbl>, DED_SHI <dbl>, DED_TEN <dbl>, DED_JIG <dbl>,
## #   DED_KIS <dbl>, DED_PUN <dbl>, F_SEX <chr>, F_GEN_2 <chr>, F_GEN <chr>,
## #   F_FGR <chr>, F_INK <chr>, F_INS <chr>, F_INK_cen <dbl>, F_INS_cen <dbl>, …

主観的幸福度(SUB_HAP)と生活満足度(SUB_SAT)を引いてdifHAPSATという変数を作成する

exdataset %>%
  mutate(difHAPSAT = SUB_HAP - SUB_SAT)

## # A tibble: 963 × 45
##    SUB_HAP SUB_SAT SUB_SLP DIC_PAR DIC_FRI DIC_OTH ULT_PRO_PAR ULT_PRO_FRI
##      <dbl>   <dbl>   <dbl>   <dbl>   <dbl>   <dbl>       <dbl>       <dbl>
##  1       4       4       9      10       5       3          10           5
##  2       6       5       8       3       1       0           3           5
##  3       5       3       3      10       5       0          10           5
##  4       5       5       4       2       0       0           5           5
##  5       3       3       2       0       0       0           5           5
##  6       7       7       6       3       1       0           3           1
##  7       5       5       6       5       2       0           5           3
##  8       5       5       8       5       5       0           5           5
##  9       1       3       1      10       5       0          10           5
## 10       7       7       5       5       5       0           5           5
## # … with 953 more rows, and 37 more variables: ULT_PRO_OTH <dbl>,
## #   ULT_REC_PAR <dbl>, ULT_REC_FRI <dbl>, ULT_REC_OTH <dbl>, TRU_PAR <dbl>,
## #   TRU_FRI <dbl>, TRU_OTH <dbl>, SPN_UNM <dbl>, SPN_THK <dbl>, SPN_FEA <dbl>,
## #   SPN_LIV <dbl>, SPN_IMP <dbl>, KAN_SEC <dbl>, KAN_THI <dbl>, KAN_SUP <dbl>,
## #   KAN_PRD <dbl>, KAN_KYK <dbl>, DED_SHI <dbl>, DED_TEN <dbl>, DED_JIG <dbl>,
## #   DED_KIS <dbl>, DED_PUN <dbl>, F_SEX <chr>, F_GEN_2 <chr>, F_GEN <chr>,
## #   F_FGR <chr>, F_INK <chr>, F_INS <chr>, F_INK_cen <dbl>, F_INS_cen <dbl>, …

arrange()：並び替え

地域順で並び替え

exdataset %>%
  arrange(ARE)

## # A tibble: 963 × 44
##    SUB_HAP SUB_SAT SUB_SLP DIC_PAR DIC_FRI DIC_OTH ULT_PRO_PAR ULT_PRO_FRI
##      <dbl>   <dbl>   <dbl>   <dbl>   <dbl>   <dbl>       <dbl>       <dbl>
##  1       5       5       4       2       0       0           5           5
##  2       5       5       6       5       2       0           5           3
##  3       7       7       5       5       5       0           5           5
##  4       4       6       8       2       3       0           5           5
##  5       5       4       5       5       5       0           5           5
##  6       3       4       8       5       3       0           8           5
##  7       7       7       4       5       5       1           5           2
##  8      10      10       7       0       0       0           5           5
##  9       2       3       5       1       1       0           1           2
## 10       2       2       3       4       2       1           4           3
## # … with 953 more rows, and 36 more variables: ULT_PRO_OTH <dbl>,
## #   ULT_REC_PAR <dbl>, ULT_REC_FRI <dbl>, ULT_REC_OTH <dbl>, TRU_PAR <dbl>,
## #   TRU_FRI <dbl>, TRU_OTH <dbl>, SPN_UNM <dbl>, SPN_THK <dbl>, SPN_FEA <dbl>,
## #   SPN_LIV <dbl>, SPN_IMP <dbl>, KAN_SEC <dbl>, KAN_THI <dbl>, KAN_SUP <dbl>,
## #   KAN_PRD <dbl>, KAN_KYK <dbl>, DED_SHI <dbl>, DED_TEN <dbl>, DED_JIG <dbl>,
## #   DED_KIS <dbl>, DED_PUN <dbl>, F_SEX <chr>, F_GEN_2 <chr>, F_GEN <chr>,
## #   F_FGR <chr>, F_INK <chr>, F_INS <chr>, F_INK_cen <dbl>, F_INS_cen <dbl>, …
…
